{
	// Place your global snippets here. Each snippet is defined under a snippet name and has a scope, prefix, body and 
	// description. Add comma separated ids of the languages where the snippet is applicable in the scope field. If scope 
	// is left empty or omitted, the snippet gets applied to all languages. The prefix is what is 
	// used to trigger the snippet and the body will be expanded and inserted. Possible variables are: 
	// $1, $2 for tab stops, $0 for the final cursor position, and ${1:label}, ${2:another} for placeholders. 
	// Placeholders with the same ids are connected.
	// Example:
	// "Print to console": {
	// 	"scope": "javascript,typescript",
	// 	"prefix": "log",
	// 	"body": [
	// 		"console.log('$1');",
	// 		"$2"
	// 	],
	// 	"description": "Log output to console"
	// }

	// https://pawelgrzybek.com/snippet-generator/

	"Export const": {
		"prefix": "exconst",
		"body": [
			"export const $1 = $2;"
		],
		"description": "Export const"
	},

	"Export const function": {
		"prefix": "exconstfun",
		"body": [
			"export const $1 = ($2) => {",
			"\t${3}",
			"};"
		],
		"description": "Export const function"
	},

	"React Action Creator": {
		"prefix": "rActionCreator",
		"body": [
			"import { $3 } from './types';",
			"",
			"export const $1 = ($2) => {",
			"\treturn {",
			"\t\ttype: $3,",
			"\t\tpayload: $4",
			"\t};",
			"};"
		],
		"description": "React Action Creator"
	},

	"React Reducer": {
		"prefix": "rReducer",
		"body": [
			"import { $1 } from './types';",
			"",
			"const INIT = {$2};",
			"",
			"export default (state = INIT, action) => {",
			"\tswitch (action.type) {",
			"\t\tcase $1:",
			"\t\t\treturn $3;",
			"\t\t",
			"\t\tdefault:",
			"\t\t\treturn state;",
			"\t}",
			"};",
			""
		],
		"description": "React Reducer"
	},

	"Import": {
		"prefix": "iiimport",
		"body": [
			"import { $2 } from '$1';",
		],
		"description": "My Import {}"
	},

	"Import {}": {
		"prefix": "iimport",
		"body": [
			"import $2 from '$1';",
		],
		"description": "My Import"
	},

	"React Component": {
		"prefix": "rcomponent",
		"body": [
			"import PropTypes from 'prop-types';",
			"import React from 'react';",
			"",
			"",
			"const $1 = (props) => {",
			"\t",
			"\treturn (",
			"\t\t<div>", 
			"\t\t\t<h1>$1</h1>", 
			"\t\t</div>", 
			"\t);",
			"\t",
			"};",
			"",
			"",
			"$1.propTypes = {",
			"\t",
			"};",
			"",
			"",
			"export default $1;",
			""
		],
		"description": "React Constant Component"
	},
	
	
	"React Component Wrapper": {
		"prefix": "rcwrappercomponent",
		"body": [
			"import React from 'react';",
			"",
			"const $1 = (WrappedComponent) => {",
			"\treturn (props) => {",
			"\t\treturn (",
			"\t\t\t<WrappedComponent {...props} />",
			"\t\t);",
			"\t};",
			"};",
			"",
			"",
			"export default $1;",
			""
		],
		"description": "React Constant Component"
	},
	
	
	"React Component Wrapper Class": {
		"prefix": "rcwrapperclasscomponent",
		"body": [
			"import React, { Component } from 'react';",
			"",
			"const $1 = (WrappedComponent) => {",
			"\treturn class extends Component { ",
			"",
			"\t\trender() { ",
			"\t\t\treturn (",
			"\t\t\t\t<WrappedComponent {...this.props} />",
			"\t\t\t);",
			"\t\t}",
			"\t}",
			"};",
			"",
			"",
			"export default $1;",
			""
		],
		"description": "React Constant Component"
	},

	"React Native Component": {
		"prefix": "rncomponent",
		"body": [
			"import PropTypes from 'prop-types';",
			"import { View, Text, StyleSheet } from 'react-native';",
			"",
			"const $1 = (props) => {",
			"\treturn (",
			"\t\t<View style={ style.view }>",
			"\t\t\t<Text>",
			"\t\t\t\t$1",
			"\t\t\t</Text>",
			"\t\t</View>",
			"\t);",
			"};",
			"",
			"",
			"$1;.propTypes = {"
			"\t",
			"};",
			"",
			"",
			"export default $1;",
			"",
			"",
			"const style = StyleSheet.create({",
			"\tview: {",
			"\t\tflex: 1,",
			"\t\talignItems: 'center',",
			"\t\tjustifyContent: 'center',",
			"\t}",
			"});",
			"",
		],
		"description": "React Constant Component"
	},


	"React Class Component": {
		"prefix": "rclassscomponent",
		"body": [
			"import PropTypes from 'prop-types';",
			"import React, { Component } from 'react';",
			"",
			"",
			"class $1 extends Component {",
			"\t",
			"\tconstructor(props) {",
			"\t\t",
			"\t\tsuper(props);",
			"\t\t",
			"\t\tthis.state = {};",
			"\t\t",
			"\t}",
			"\t",
			"\t",
			"\trender() {",
			"\t\t",
			"\t\treturn (",
			"\t\t\t<div>", 
			"\t\t\t\t<h1>$1</h1>", 
			"\t\t\t</div>", 
			"\t\t);",
			"\t\t",
			"\t}",
			"\t",
			"}",
			"",
			"",
			"$1.propTypes = {",
			"\t",
			"};",
			"",
			"",
			"export default $1;",
			""
		],
		"description": "React Class Component"
	},
	
	"React Native Class Component": {
		"prefix": "rnclassscomponent",
		"body": [
			"import PropTypes from 'prop-types';",
			"import React, { Component } from 'react';",
			"import { View, Text, StyleSheet } from 'react-native';",
			"",
			"",
			"class $1 extends Component {",
			"\trender() {",
			"\t\treturn (",
			"\t\t\t<View style={ style.view }>",
			"\t\t\t\t<Text>",
			"\t\t\t\t\t$1",
			"\t\t\t\t</Text>",
			"\t\t\t</View>",
			"\t\t);",
			"\t}",
			"}",
			"",
			"",
			"$1.propTypes = {",
			"\t",
			"};",
			"",
			"",
			"export default $1;",
			"",
			"",
			"const style = StyleSheet.create({",
			"\tview: {",
			"\t\tflex: 1,",
			"\t\talignItems: 'center',",
			"\t\tjustifyContent: 'center',",
			"\t}",
			"});",
			""
		],
		"description": "React Native Class Component"
	},
	
	"React MapStateToProps": {
		"prefix": "rmapstatetoprops",
		"body": [
			"const mapStateToProps = (state, ownProps) => {",
			"\treturn {",
			"\t\t$1",
			"\t};",
			"};"
		],
		"description": "React mapStateToProps"
	},
	
	"React MapDispatchToProps": {
		"prefix": "rmapdispatchtoprops",
		"body": [
			"const mapDispatchToProps = (dispatch) => {",
			"\treturn bindActionCreators({ $1 }, dispatch);",
			"}",
			""
			
		],
		"description": "React mapDispatchToProps"
	},

	"React Connect mapStateToProps": {
		"prefix": "rconnect",
		"body": [
			"const mapStateToProps = (state, ownProps) => {",
			"\treturn {",
			"\t\t",
			"\t};",
			"}",
			"",
			"const mapDispatchToProps = (dispatch) => {",
			"\treturn bindActionCreators({  }, dispatch);",
			"}",
			"",
			"export default connect(mapStateToProps, mapDispatchToProps)();",
			""
		],
		"description": "React mapStateToProps"
	},

	"React Redux connect Import": {
		"prefix": "riconnect",
		"body": [
			"import { connect } from 'react-router-dom';"
		],
		"description": "React Redux connect Import"
	},

	"React Redux Link Import": {
		"prefix": "rilink",
		"body": [
			"import { Link } from 'react-redux-dom';"
		],
		"description": "React Reduc Link Import"
	},

	"React Native Import": {
		"prefix": "rni",
		"body": [
			"import ReactNative from 'react-native';"
		],
		"description": "React Native Import"
	},

	"React Native View Text Import": {
		"prefix": "rnivt",
		"body": [
			"import { View, Text } from 'react-native';"
		],
		"description": "React Native View Text Import"
	},

	"React Native Styles": {
		"prefix": "rnstyles",
		"body": [
			"const styles = {",
			"\t$1",
			"};"
		],
		"description": "React Native Styles const"
	},

	"Hacker Rank startup": {
		"prefix": "hackerrankstartup",
		"body": [
			"'use strict';",
			"",
			"",
			"function method(${1}) {",
			"\t",
			"\tconsole.log(${1});",
			"\t",
			"\treturn [];",
			"\t",
			"}",
			"",
			"",
			"const result = method();",
			"//const result2 = method();",
			"//const result3 = method();",
			"",
			"console.log(result);",
			"//console.log(result2);",
			"//console.log(result3);"
		],
		"description": "Hacker Rank startup"
	}

}
