{
	// Place your snippets for less here. Each snippet is defined under a snippet name and has a prefix, body and 
	// description. The prefix is what is used to trigger the snippet and the body will be expanded and inserted. Possible variables are:
	// $1, $2 for tab stops, $0 for the final cursor position, and ${1:label}, ${2:another} for placeholders. Placeholders with the 
	// same ids are connected.
	// Example:
	// "Print to console": {
	// 	"prefix": "log",
	// 	"body": [
	// 		"console.log('$1');",
	// 		"$2"
	// 	],
	// 	"description": "Log output to console"
	// }
	
	"@brand-primary": {
		"prefix": "bp",
		"body": [
			"@brand-primary"
		],
		"description": "@brand-primary"
	},
	
	"@brand-success": {
		"prefix": "bs",
		"body": [
			"@brand-success"
		],
		"description": "@brand-success"
	},
	
	"@brand-info": {
		"prefix": "bi",
		"body": [
			"@brand-info"
		],
		"description": "@brand-info"
	},
	
	"@brand-warning": {
		"prefix": "bw",
		"body": [
			"@brand-warning"
		],
		"description": "@brand-warning"
	},
	
	"@brand-danger": {
		"prefix": "bd",
		"body": [
			"@brand-danger"
		],
		"description": "@brand-danger"
	},
	
	"@brand-accent": {
		"prefix": "ba",
		"body": [
			"@brand-accent"
		],
		"description": "@brand-accent"
	},
	
	"@gray-darker": {
		"prefix": "gd",
		"body": [
			"@gray-darker"
		],
		"description": "@gray-darker"
	},
	
	"@gray-lighter": {
		"prefix": "gl",
		"body": [
			"@gray-lighter"
		],
		"description": "@gray-lighter"
	},
	
	"@gray": {
		"prefix": "gr",
		"body": [
			"@gray"
		],
		"description": "@gray"
	},
	
	"lighten(@, %);": {
		"prefix": "lighten",
		"body": [
			"lighten($1, $2%);"
		],
		"description": "lighten(@, %);"
	},
	
	"darken(@, %);": {
		"prefix": "darken",
		"body": [
			"darken($1, $2%);"
		],
		"description": "darken(@, %);"
	},
	
	"@grid-gutter-width": {
		"prefix": "gutter",
		"body": [
			"@grid-gutter-width / 2"
		],
		"description": "@grid-gutter-width / 2"
	},
	
	"&:hover, &:focus, &:active": {
		"prefix": "hover",
		"body": [
			"&:hover, &:focus, &:active {",
			"\t$1",
			"}"
		],
		"description": "&:hover, &:focus, &:active "
	}
	
}
